{
    "leaders": [
         {
            "bureauCode": "12",
            "bureauName": "Office of Chief Information Officer",
            "employmentType": "SES",
            "evaluationRatingOfficialTitle": "Assistant  Secretary for Administration",
            "evaluationReviewingOfficialTitle": "Secretary",
            "firstName": "Gary",
            "keyBureauCIO": "No",
            "lastName": "Washington",
            "typeOfAppointment": "career"
        },
        {
            "bureauCode": "45",
            "bureauName": "Agricultural Marketing Service",
            "employmentType": "SES",
            "evaluationRatingOfficialTitle": "Associate Administrator",
            "evaluationReviewingOfficialTitle": "Administrator",
            "firstName": "Doug",
            "keyBureauCIO": "Yes",
            "lastName": "Nash",
            "typeOfAppointment": "career"
        },
        {
            "bureauCode": "18",
            "bureauName": "Agricultural Research Service",
            "employmentType": "SES",
            "evaluationRatingOfficialTitle": "Deputy Administrator",
            "evaluationReviewingOfficialTitle": "Administrator",
            "firstName": "Paul",
            "keyBureauCIO": "Yes",
            "lastName": "Gibson",
            "typeOfAppointment": "career"
        },
        {
            "bureauCode": "32",
            "bureauName": "Animal and Plant Health Inspection Service",
            "employmentType": "SES",
            "evaluationRatingOfficialTitle": "Associate Deputy Administrator Marketing and Regulatory Programs Business Services (MRPBS)",
            "evaluationReviewingOfficialTitle": "Deputy Administrator Marketing and Regulatory Programs Business Services (MRPBS)",
            "firstName": "Dawn",
            "keyBureauCIO": "Yes",
            "lastName": "Tucker",
            "typeOfAppointment": "career"
        },
        {
            "bureauCode": "12",
            "bureauName": "Departmental Management",
            "employmentType": "GS",
            "evaluationRatingOfficialTitle": "Deputy CIO",
            "evaluationReviewingOfficialTitle": "CIO",
            "firstName": "Cedric",
            "keyBureauCIO": "Yes",
            "lastName": "Bragg",
            "typeOfAppointment": "career"
        },
        {
            "bureauCode": "13",
            "bureauName": "Economic Research Service",
            "employmentType": "SES",
            "evaluationRatingOfficialTitle": "Deputy Administrator",
            "evaluationReviewingOfficialTitle": "Administrator",
            "firstName": "Tony",
            "keyBureauCIO": "Yes",
            "lastName": "Williams",
            "otherResponsibilities": "Director, Information Services Division",
            "typeOfAppointment": "career"
        },
        {
            "bureauCode": "49",
            "bureauName": "Farm Service Agency",
            "employmentType": "SES",
            "evaluationRatingOfficialTitle": "Deputy Administrator",
            "evaluationReviewingOfficialTitle": "Administrator",
            "firstName": "Darren",
            "keyBureauCIO": "Yes",
            "lastName": "Ash",
            "typeOfAppointment": "career"
        },
        {
            "bureauCode": "84",
            "bureauName": "Food and Nutrition Service",
            "employmentType": "SES",
            "evaluationRatingOfficialTitle": "Deputy Administrator OIT",
            "evaluationReviewingOfficialTitle": "Associate Administrator/COO",
            "firstName": "Kimberly",
            "keyBureauCIO": "Yes",
            "lastName": "Jackson",
            "typeOfAppointment": "career"
        },
        {
            "bureauCode": "35",
            "bureauName": "Food Safety Inspection Service",
            "employmentType": "SES",
            "evaluationRatingOfficialTitle": "Deputy Administrator",
            "evaluationReviewingOfficialTitle": "Administrator",
            "firstName": "Janet",
            "keyBureauCIO": "Yes",
            "lastName": "Stevens",
            "typeOfAppointment": "career"
        },
        {
            "bureauCode": "68",
            "bureauName": "Foreign Agricultural Service",
            "employmentType": "GS",
            "evaluationRatingOfficialTitle": "Senior Advisor",
            "evaluationReviewingOfficialTitle": "Chief Operating Officer",
            "firstName": "Brenda",
            "keyBureauCIO": "Yes",
            "lastName": "Lawson",
            "typeOfAppointment": "career"
        },
        {
            "bureauCode": "96",
            "bureauName": "Forest Service",
            "employmentType": "SES",
            "evaluationRatingOfficialTitle": "Deputy Chief, Business Operations",
            "evaluationReviewingOfficialTitle": "Chief",
            "firstName": "Donald",
            "keyBureauCIO": "Yes",
            "lastName": "Modder",
            "typeOfAppointment": "career"
       
        },
        {
            "bureauCode": "15",
            "bureauName": "National Agricultural Statistics Service",
            "employmentType": "SES",
            "evaluationRatingOfficialTitle": "NASS Associate Administrator",
            "evaluationReviewingOfficialTitle": "Administrator",
            "firstName": "Ron",
            "keyBureauCIO": "Yes",
            "lastName": "Thompson",
            "otherResponsibilities": "Director, Information Technology Division",
            "typeOfAppointment": "career"

        },
        {
            "bureauCode": "20",
            "bureauName": "National Institute of Food and Agriculture",
            "employmentType": "SES",
            "evaluationRatingOfficialTitle": "Associate Director for Operations",
            "evaluationReviewingOfficialTitle": "Director/NIFA",
            "firstName": "Jason",
            "keyBureauCIO": "Yes",
            "lastName": "Hitchcock",
            "otherResponsibilities": "Deputy Director",
            "typeOfAppointment": "career"
        },
        {
            "bureauCode": "53",
            "bureauName": "Natural Resources Conservation Service",
            "employmentType": "SES",
            "evaluationRatingOfficialTitle": "Associate Chief of Operations",
            "evaluationReviewingOfficialTitle": "Chief of NRCS",
            "firstName": "Darren",
            "keyBureauCIO": "Yes",
            "lastName": "Ash",
            "typeOfAppointment": "career"
        },
        {
            "bureauCode": "07",
            "bureauName": "Office of Assistant Secretary Civil Rights",
            "employmentType": "GS",
            "evaluationRatingOfficialTitle": "Associate Assistant Secretary for Civil Rights",
            "evaluationReviewingOfficialTitle": "Assistant Secretary for Civil Rights",
            "firstName": "Kenneth",
            "keyBureauCIO": "Yes",
            "lastName": "Baisden",
            "otherResponsibilities": "Director, Data Records and Management Division",
            "typeOfAppointment": "career"
        },
        {
            "bureauCode": "00",
            "bureauName": "Office of Chief Economist",
            "employmentType": "GS",
            "evaluationRatingOfficialTitle": "Chairman, World Agricultural Outlook Board",
            "evaluationReviewingOfficialTitle": "Chief Economist",
            "firstName": "David",
            "keyBureauCIO": "Yes",
            "lastName": "Stiles",
            "otherResponsibilities": "ISSPM, CISO",
            "typeOfAppointment": "career"
        },
        {
            "bureauCode": "14",
            "bureauName": "Office of Chief Financial Officer",
            "employmentType": "SES",
            "evaluationRatingOfficialTitle": "Director, NFC",
            "evaluationReviewingOfficialTitle": "Deputy CFO",
            "firstName": "Mike",
            "keyBureauCIO": "Yes",
            "lastName": "Clanton",
            "typeOfAppointment": "career"
        },
        {
            "bureauCode": "12",
            "bureauName": "Office of Chief Information Officer",
            "employmentType": "SES",
            "employmentTypeOther": "Deputy CIO",
            "evaluationRatingOfficialTitle": "CIO",
            "evaluationReviewingOfficialTitle": "Assistant Secretary for Administration",
            "firstName": "Francisco",
            "keyBureauCIO": "No",
            "lastName": "Salguero",
            "typeOfAppointment": "career"
        
        },
        {
            "bureauCode": "12",
            "bureauName": "Office of Chief Information Officer",
            "employmentType": "SES",
            "evaluationRatingOfficialTitle": "CIO",
            "evaluationReviewingOfficialTitle": "Assistant  Secretary for Administration",
            "firstName": "Sue ",
            "keyBureauCIO": "No",
            "lastName": "Bussells",
            "typeOfAppointment": "career"
        },
         {
            "bureauCode": "12",
            "bureauName": "Office of Chief Information Officer",
            "employmentType": "SES",
            "evaluationRatingOfficialTitle": "CIO",
            "evaluationReviewingOfficialTitle": "Assistant  Secretary for Administration",
            "firstName": "Chris",
            "keyBureauCIO": "No",
            "lastName": "Lowe",
            "typeOfAppointment": "career"
        },
        {
            "bureauCode": "00",
            "bureauName": "Office of Communications",
            "employmentType": "GS",
            "evaluationRatingOfficialTitle": "Deputy Director for Creative Development",
            "evaluationReviewingOfficialTitle": "Director of Communications",
            "firstName": "Wayne",
            "keyBureauCIO": "Yes",
            "lastName": "Moore",
            "typeOfAppointment": "career"
        },
        {
            "bureauCode": "00",
            "bureauName": "Office of Human Resources Management",
            "employmentType": "GS",
            "evaluationRatingOfficialTitle": "Deputy Director of Human Resources",
            "evaluationReviewingOfficialTitle": "Director of Human Resources",
            "firstName": "Marquette",
            "keyBureauCIO": "Yes",
            "lastName": "Defillo",
            "typeOfAppointment": "career"
        },
        {
            "bureauCode": "08",
            "bureauName": "Office of Inspector General",
            "employmentType": "GS",
            "evaluationRatingOfficialTitle": "Deputy Assistant Inspector General for OM",
            "evaluationReviewingOfficialTitle": "Assistant Inspector General for OM",
            "firstName": "Craig",
            "keyBureauCIO": "Yes",
            "lastName": "Goscha",
            "typeOfAppointment": "career"
        },
        {
            "bureauCode": "47",
            "bureauName": "Risk Management Agency",
            "employmentType": "SES",
            "evaluationRatingOfficialTitle": "Associate Administrator",
            "evaluationReviewingOfficialTitle": "Administrator",
            "firstName": "Chad",
            "keyBureauCIO": "Yes",
            "lastName": "Sheridan",
            "typeOfAppointment": "career"
        },
        {
            "bureauCode": "55",
            "bureauName": "Rural Development",
            "employmentType": "SES",
            "evaluationRatingOfficialTitle": "Deputy Administrator Operations Management",
            "evaluationReviewingOfficialTitle": "Deputy Undersecretary",
            "firstName": "Mia",
            "keyBureauCIO": "Yes",
            "lastName": "Jordan",
            "typeOfAppointment": "career"
        }
    ]
}